%YAML 1.1
%TAG !u! tag:unity3d.com,2011:
--- !u!21 &2100000
Material:
  serializedVersion: 6
  m_ObjectHideFlags: 0
  m_CorrespondingSourceObject: {fileID: 0}
  m_PrefabInstance: {fileID: 0}
  m_PrefabAsset: {fileID: 0}
  m_Name: Custom_Lambert
  m_Shader: {fileID: 4800000, guid: 09c5f765ec43be24d83563710c60b1b0, type: 3}
  m_ShaderKeywords: 
  m_LightmapFlags: 4
  m_EnableInstancingVariants: 0
  m_DoubleSidedGI: 0
  m_CustomRenderQueue: -1
  stringTagMap: {}
  disabledShaderPasses: []
  m_SavedProperties:
    serializedVersion: 3
    m_TexEnvs:
    - _MainTex:
        m_Texture: {fileID: 0}
        m_Scale: {x: 1, y: 1}
        m_Offset: {x: 0, y: 0}
    m_Floats:
    - _MySlider: 0
    m_Colors:
    - _AmbientColor: {r: 0.44775718, g: 0.735849, b: 0.7002365, a: 1}
    - _EmissiveColor: {r: 0.2830189, g: 0.2830189, b: 0.2830189, a: 1}
  m_BuildTextureStacks: []
